{
    "count": 1813,
    "next": "http://www.moocap.org.cn/api/cms/allocations/?limit=10&offset=10",
    "previous": null,
    "results": [
        {
            "id": 10,
            "term": "2015-2016第二学期",
            "examroom_name": "测试考场2",
            "examroom_kaodian_name": "22",
            "examroom_address": "dd",
            "exam": "MOOCAP微积分（先修课）",
            "exam_start": "2016-07-21 17:00:00+00:00",
            "exam_end": "2016-07-21 19:30:00+00:00",
            "province": "北京",
            "city": "北京",
            "school": "清华大学附属中学",
            "student": "李卓扬",
            "identity_type": "身份证",
            "identity": "360403199912110338",
            "gender": "1",
            "exam_card_num": "456",
            "created": "2016-06-16T14:15:56Z",
            "modified": "2016-07-12T03:02:48Z",
            "place": "1",
            "examroom": 4,
            "enroll": 14
        },
        {
            "id": 11,
            "term": "2015-2016第二学期",
            "examroom_name": "测试考场1",
            "examroom_kaodian_name": "考点1",
            "examroom_address": "xxxxx",
            "exam": "MOOCAP概率论与数理统计（先修课）",
            "exam_start": "2016-07-22 17:00:00+00:00",
            "exam_end": "2016-07-22 19:00:00+00:00",
            "province": "北京",
            "city": "北京",
            "school": "清华大学附属中学",
            "student": "李卓扬",
            "identity_type": "身份证",
            "identity": "360403199912110338",
            "gender": "1",
            "exam_card_num": "123",
            "created": "2016-06-16T14:17:03Z",
            "modified": "2016-07-12T03:02:48Z",
            "place": "2",
            "examroom": 3,
            "enroll": 15
        },
        {
            "id": 771,
            "term": "2015-2016第二学期",
            "examroom_name": "测试考场2",
            "examroom_kaodian_name": "22",
            "examroom_address": "dd",
            "exam": "MOOCAP大学化学（先修课）",
            "exam_start": "2016-07-23 17:00:00+00:00",
            "exam_end": "2016-07-23 19:00:00+00:00",
            "province": "天津",
            "city": "天津",
            "school": "天津市宝坻区第一中学",
            "student": "柴智敏",
            "identity_type": "身份证",
            "identity": "370502199908213239",
            "gender": "1",
            "exam_card_num": "",
            "created": "2016-06-30T14:43:07Z",
            "modified": "2016-07-11T09:26:15Z",
            "place": "",
            "examroom": 4,
            "enroll": 854
        },
        {
            "id": 819,
            "term": "2015-2016第二学期",
            "examroom_name": "测试考场1",
            "examroom_kaodian_name": "考点1",
            "examroom_address": "xxxxx",
            "exam": "MOOCAP普通生物学（先修课）",
            "exam_start": "2016-07-24 22:30:00+00:00",
            "exam_end": "2016-07-26 00:30:00+00:00",
            "province": "天津",
            "city": "天津",
            "school": "0-其他",
            "student": "韩勇",
            "identity_type": "身份证",
            "identity": "120103199901074510",
            "gender": "2",
            "exam_card_num": "1",
            "created": "2016-07-01T05:55:11Z",
            "modified": "2016-07-11T09:26:15Z",
            "place": "1",
            "examroom": 3,
            "enroll": 907
        },
        {
            "id": 884,
            "term": "2015-2016第二学期",
            "examroom_name": "测试考场2",
            "examroom_kaodian_name": "22",
            "examroom_address": "dd",
            "exam": "MOOCAP线性代数（先修课）",
            "exam_start": "2016-07-21 22:30:00+00:00",
            "exam_end": "2016-07-22 00:30:00+00:00",
            "province": "天津",
            "city": "天津",
            "school": "西安铁一中学",
            "student": "高璟桐",
            "identity_type": "身份证",
            "identity": "610303199907084514",
            "gender": "1",
            "exam_card_num": "",
            "created": "2016-07-01T14:48:17Z",
            "modified": "2016-07-11T09:26:15Z",
            "place": "",
            "examroom": 4,
            "enroll": 978
        },
        {
            "id": 1402,
            "term": "2015-2016第二学期",
            "examroom_name": "测试考场1",
            "examroom_kaodian_name": "考点1",
            "examroom_address": "xxxxx",
            "exam": "MOOCAP线性代数（先修课）",
            "exam_start": "2016-07-21 22:30:00+00:00",
            "exam_end": "2016-07-22 00:30:00+00:00",
            "province": "天津",
            "city": "天津",
            "school": "西安铁一中学",
            "student": "任白若城",
            "identity_type": "身份证",
            "identity": "610221199910160044",
            "gender": "2",
            "exam_card_num": "",
            "created": "2016-07-04T03:41:28Z",
            "modified": "2016-07-11T09:26:15Z",
            "place": "",
            "examroom": 3,
            "enroll": 738
        },
        {
            "id": 1820,
            "term": "2015-2016第二学期",
            "examroom_name": null,
            "examroom_kaodian_name": null,
            "examroom_address": null,
            "exam": "MOOCAP概率论与数理统计（先修课）",
            "exam_start": "2016-07-22 17:00:00+00:00",
            "exam_end": "2016-07-22 19:00:00+00:00",
            "province": "贵州",
            "city": "贵阳",
            "school": "贵阳市第一中学",
            "student": "杨正坤",
            "identity_type": "身份证",
            "identity": "522601199809050023",
            "gender": "2",
            "exam_card_num": null,
            "created": "2016-07-06T04:43:18Z",
            "modified": "2016-07-06T04:43:18Z",
            "place": null,
            "examroom": null,
            "enroll": 1902
        },
        {
            "id": 1819,
            "term": "2015-2016第二学期",
            "examroom_name": null,
            "examroom_kaodian_name": null,
            "examroom_address": null,
            "exam": "MOOCAP大学化学（先修课）",
            "exam_start": "2016-07-23 17:00:00+00:00",
            "exam_end": "2016-07-23 19:00:00+00:00",
            "province": "北京",
            "city": "北京",
            "school": "北京市顺义牛栏山第一中学",
            "student": "蔡鹤麒",
            "identity_type": "身份证",
            "identity": "110222199810080862",
            "gender": "2",
            "exam_card_num": null,
            "created": "2016-07-06T04:08:47Z",
            "modified": "2016-07-06T04:08:47Z",
            "place": null,
            "examroom": null,
            "enroll": 1906
        },
        {
            "id": 1818,
            "term": "2015-2016第二学期",
            "examroom_name": null,
            "examroom_kaodian_name": null,
            "examroom_address": null,
            "exam": "MOOCAP微积分（先修课）",
            "exam_start": "2016-07-21 17:00:00+00:00",
            "exam_end": "2016-07-21 19:30:00+00:00",
            "province": "山东",
            "city": "青岛",
            "school": "山东省青岛第二中学",
            "student": "姜阔",
            "identity_type": "身份证",
            "identity": "370202199806243019",
            "gender": "1",
            "exam_card_num": null,
            "created": "2016-07-05T23:52:35Z",
            "modified": "2016-07-05T23:52:35Z",
            "place": null,
            "examroom": null,
            "enroll": 1903
        },
        {
            "id": 1817,
            "term": "2015-2016第二学期",
            "examroom_name": null,
            "examroom_kaodian_name": null,
            "examroom_address": null,
            "exam": "MOOCAP微积分（先修课）",
            "exam_start": "2016-07-21 17:00:00+00:00",
            "exam_end": "2016-07-21 19:30:00+00:00",
            "province": "江苏",
            "city": "南京",
            "school": "江苏省淮阴中学",
            "student": "韦天琛",
            "identity_type": "身份证",
            "identity": "320829200102181226",
            "gender": "2",
            "exam_card_num": null,
            "created": "2016-07-05T15:45:41Z",
            "modified": "2016-07-05T15:45:41Z",
            "place": null,
            "examroom": null,
            "enroll": 1901
        }
    ]
}