{
    "count": 10,
    "next": "http://192.168.9.221:9999/api/cms/order/score_report_orders/?limit=2&offset=2",
    "previous": null,
    "results": [
        {
            "id": 23,
            "number": "721042516",
            "cost": "30.00",
            "payway": "alipay",
            "cyber_bank": "BJRCB",
            "serial_number": "669149088",
            "deliver_status": "delivering",
            "exam_name": "大学英语",
            "student_name": "麻辣鸡",
            "identity_type": "身份证",
            "identity": "3707051876547982154",
            "exam_card_num": "111111111",
            "purchase_time": "2016-01-14T07:38:41.170154Z"
        },
        {
            "id": 22,
            "number": "753153691",
            "cost": "30.00",
            "payway": "alipay",
            "cyber_bank": "BJRCB",
            "serial_number": "450486977",
            "deliver_status": "delivering",
            "exam_name": "中华文化",
            "student_name": "",
            "identity_type": "",
            "identity": "",
            "exam_card_num": "",
            "purchase_time": "2016-01-14T07:38:41.165829Z"
        }
    ]
}